id;type;name;used;sens;pulse;delay
0;heat;Channel 01;True;0;0;0
1;fountain;Channel 02;True;0;0;0
2;heat;Channel 03;True;1;0;0
3;fountain;Channel 04;True;1;0;0
4;fogger;Channel 05;True;1;5;2
5;heat;Channel 06;False;None;0;0
6;None;Channel 07;False;None;0;0
7;heat;Channel 08;False;None;0;0
8;light;Relé1;True;None;0;0
9;heat;Relé2;True;None;0;0
